{ "compressionlevel":0,
 "height":14,
 "infinite":false,
 "layers":[
        {
         "data":[0, 0, 0, 0, 0, 0, 0, 0, 0, 0, 0, 0, 0, 0, 0, 0, 0, 0, 0, 0, 0, 0, 0, 0, 0, 0, 0, 0, 0, 0, 578, 578, 578, 578, 578, 578, 578, 578, 578, 578, 578, 578, 0, 0, 578, 578, 0, 0, 0, 0, 0, 0, 0, 0, 578, 578, 0, 0, 578, 578, 0, 0, 0, 0, 0, 0, 0, 0, 0, 578, 0, 0, 578, 578, 0, 0, 0, 0, 0, 0, 0, 0, 0, 578, 0, 0, 578, 578, 0, 0, 0, 578, 578, 578, 578, 0, 578, 578, 0, 0, 578, 578, 0, 0, 0, 578, 578, 578, 578, 0, 578, 578, 578, 578, 578, 578, 0, 0, 0, 578, 578, 578, 578, 0, 0, 578, 578, 578, 578, 578, 0, 0, 0, 0, 0, 0, 0, 0, 0, 578, 0, 0, 0, 0, 0, 0, 0, 0, 0, 0, 0, 0, 0, 578, 578, 578, 578, 0, 0, 0, 578, 0, 0, 0, 0, 0, 0, 578, 0, 0, 578, 578, 0, 0, 578, 578, 578, 578, 578, 578, 578, 578, 0, 0, 578, 578, 578, 578, 578, 578, 578, 578, 578, 578, 578, 578],
         "height":14,
         "id":9,
         "name":"collides",
         "opacity":0.95,
         "type":"tilelayer",
         "visible":true,
         "width":14,
         "x":0,
         "y":0
        }, 
        {
         "data":[0, 0, 0, 0, 0, 0, 0, 0, 0, 0, 0, 0, 0, 0, 0, 0, 0, 0, 0, 0, 0, 0, 0, 0, 0, 0, 0, 0, 0, 0, 0, 0, 0, 0, 0, 0, 0, 0, 0, 0, 0, 0, 0, 0, 0, 0, 0, 0, 0, 0, 0, 0, 0, 0, 0, 0, 0, 0, 0, 0, 0, 0, 0, 0, 0, 0, 0, 0, 0, 0, 0, 0, 0, 0, 0, 0, 0, 0, 0, 0, 0, 0, 0, 0, 0, 0, 0, 0, 0, 0, 0, 0, 0, 0, 0, 0, 0, 0, 0, 0, 0, 0, 0, 0, 0, 0, 0, 0, 0, 0, 0, 0, 0, 0, 0, 0, 0, 0, 0, 0, 0, 0, 0, 0, 0, 0, 0, 0, 0, 0, 0, 0, 0, 0, 0, 0, 0, 0, 0, 0, 294, 0, 0, 0, 0, 0, 0, 0, 0, 0, 0, 0, 0, 0, 0, 0, 0, 0, 0, 0, 0, 0, 0, 0, 0, 0, 0, 0, 0, 0, 0, 0, 0, 0, 0, 0, 0, 0, 0, 0, 0, 0, 0, 0, 0, 0, 0, 0, 0, 0, 0, 0, 0, 0, 0, 0],
         "height":14,
         "id":19,
         "name":"exit",
         "opacity":1,
         "properties":[
                {
                 "name":"exitUrl",
                 "type":"string",
                 "value":"\/_\/global\/maps.live.linux-tage.de\/maps\/ZHSG\/EG.json#start_live_FFC"
                }],
         "type":"tilelayer",
         "visible":true,
         "width":14,
         "x":0,
         "y":0
        }, 
        {
         "data":[0, 0, 0, 0, 0, 0, 0, 0, 0, 0, 0, 0, 0, 0, 0, 0, 0, 0, 0, 0, 0, 0, 0, 0, 0, 0, 0, 0, 0, 0, 0, 0, 0, 0, 0, 0, 0, 0, 0, 0, 0, 0, 0, 0, 0, 0, 0, 0, 0, 0, 0, 0, 0, 0, 0, 0, 0, 0, 0, 0, 0, 0, 0, 0, 0, 0, 0, 0, 0, 0, 0, 0, 0, 0, 0, 0, 0, 0, 0, 0, 0, 0, 0, 0, 0, 0, 0, 0, 0, 0, 0, 0, 0, 0, 0, 0, 0, 0, 0, 0, 0, 0, 0, 0, 0, 0, 0, 0, 0, 0, 0, 0, 0, 0, 0, 0, 0, 0, 0, 0, 0, 0, 0, 0, 0, 0, 0, 0, 0, 0, 0, 0, 0, 0, 0, 0, 0, 0, 0, 0, 0, 287, 287, 0, 0, 0, 0, 0, 0, 0, 0, 0, 0, 0, 0, 0, 0, 0, 0, 0, 0, 0, 0, 0, 0, 0, 0, 0, 0, 0, 0, 0, 0, 0, 0, 0, 0, 0, 0, 0, 0, 0, 0, 0, 0, 0, 0, 0, 0, 0, 0, 0, 0, 0, 0, 0],
         "height":14,
         "id":8,
         "name":"start",
         "opacity":1,
         "properties":[
                {
                 "name":"startLayer",
                 "type":"bool",
                 "value":true
                }],
         "type":"tilelayer",
         "visible":true,
         "width":14,
         "x":0,
         "y":0
        }, 
        {
         "data":[0, 0, 0, 0, 0, 0, 0, 0, 0, 0, 0, 0, 0, 0, 0, 0, 0, 0, 0, 0, 0, 0, 0, 0, 0, 0, 0, 0, 0, 0, 0, 0, 0, 0, 0, 0, 0, 0, 0, 0, 0, 0, 0, 0, 0, 0, 0, 0, 0, 0, 0, 0, 0, 0, 0, 0, 0, 0, 0, 0, 0, 0, 0, 0, 0, 0, 0, 0, 0, 0, 0, 0, 0, 0, 0, 0, 5800, 5800, 5800, 5800, 5800, 5800, 0, 0, 0, 0, 0, 0, 0, 0, 5800, 5800, 5800, 5800, 5800, 5800, 0, 0, 0, 0, 0, 0, 0, 0, 5800, 5800, 5800, 5800, 5800, 5800, 0, 0, 0, 0, 0, 0, 0, 0, 5800, 5800, 5800, 5800, 5800, 5800, 0, 0, 0, 0, 0, 0, 0, 0, 5800, 5800, 5800, 5800, 5800, 5800, 0, 0, 0, 0, 0, 0, 0, 0, 0, 0, 0, 0, 0, 0, 0, 0, 0, 0, 0, 0, 0, 0, 0, 0, 0, 0, 0, 0, 0, 0, 0, 0, 0, 0, 0, 0, 0, 0, 0, 0, 0, 0, 0, 0, 0, 0, 0, 0, 0, 0, 0, 0, 0, 0, 0, 0, 0, 0],
         "height":14,
         "id":12,
         "name":"groupcall-zone",
         "opacity":0.4,
         "properties":[
                {
                 "name":"jitsiRoom",
                 "type":"string",
                 "value":"- CLT22 - LIVE - FFC"
                }, 
                {
                 "name":"jitsiTrigger",
                 "type":"string",
                 "value":"onaction"
                }, 
                {
                 "name":"jitsiTriggerMessage",
                 "type":"string",
                 "value":"Leertaste dr\u00fccken oder hier klicken, um der Videokonferenz beizutreten"
                }],
         "type":"tilelayer",
         "visible":true,
         "width":14,
         "x":0,
         "y":0
        }, 
        {
         "data":[0, 0, 0, 0, 0, 0, 0, 0, 0, 0, 0, 0, 0, 0, 0, 0, 0, 0, 0, 0, 0, 0, 0, 0, 0, 0, 0, 0, 0, 0, 0, 0, 0, 0, 0, 0, 0, 0, 0, 0, 0, 0, 0, 0, 0, 125, 126, 126, 126, 126, 126, 126, 126, 126, 126, 0, 0, 0, 0, 133, 134, 134, 134, 134, 134, 134, 134, 134, 134, 0, 0, 0, 0, 133, 134, 134, 134, 134, 134, 134, 134, 134, 134, 0, 0, 0, 0, 133, 134, 134, 134, 134, 134, 134, 134, 134, 134, 0, 0, 0, 0, 133, 134, 134, 134, 134, 134, 134, 134, 134, 134, 0, 0, 0, 0, 133, 134, 134, 134, 134, 134, 134, 134, 134, 134, 0, 0, 0, 0, 133, 134, 134, 134, 134, 134, 134, 134, 134, 134, 0, 134, 134, 134, 134, 134, 134, 134, 134, 134, 134, 134, 134, 134, 0, 0, 0, 0, 133, 134, 134, 134, 134, 134, 134, 134, 134, 134, 0, 0, 0, 0, 133, 134, 134, 134, 134, 134, 134, 134, 134, 134, 0, 0, 0, 0, 0, 0, 0, 0, 0, 0, 0, 0, 0, 0, 0],
         "height":14,
         "id":3,
         "name":"boden",
         "opacity":1,
         "type":"tilelayer",
         "visible":true,
         "width":14,
         "x":0,
         "y":0
        }, 
        {
         "data":[0, 0, 2400, 2401, 2401, 2401, 2401, 2401, 2401, 2401, 2401, 2401, 2401, 2402, 0, 0, 2440, 2683, 2683, 2683, 2683, 2683, 2683, 2683, 2683, 2683, 2683, 2442, 0, 0, 2440, 2441, 2441, 2441, 2441, 2441, 2441, 2441, 2441, 2441, 2441, 2442, 0, 0, 2440, 0, 0, 0, 0, 0, 0, 0, 0, 0, 0, 2442, 0, 0, 2440, 0, 0, 0, 0, 0, 0, 0, 0, 0, 0, 2442, 0, 0, 2440, 0, 0, 0, 0, 0, 0, 0, 0, 0, 0, 2442, 0, 0, 2440, 0, 0, 0, 0, 0, 0, 0, 0, 0, 0, 2442, 0, 0, 2440, 0, 0, 0, 0, 0, 0, 0, 0, 0, 0, 2442, 1882, 1882, 1883, 0, 0, 0, 0, 0, 0, 0, 0, 0, 0, 2442, 1922, 1922, 1923, 0, 0, 0, 0, 0, 0, 0, 0, 0, 0, 2442, 0, 0, 0, 0, 0, 0, 0, 0, 0, 0, 0, 0, 0, 2442, 1579, 1579, 1267, 0, 0, 0, 0, 0, 0, 0, 0, 0, 0, 2442, 0, 0, 1097, 0, 0, 0, 0, 0, 0, 0, 0, 0, 0, 2442, 0, 0, 2457, 1918, 1918, 2481, 2481, 0, 0, 0, 0, 0, 0, 0],
         "height":14,
         "id":1,
         "name":"waende",
         "opacity":1,
         "type":"tilelayer",
         "visible":true,
         "width":14,
         "x":0,
         "y":0
        }, 
        {
         "data":[0, 0, 0, 0, 0, 0, 0, 0, 0, 0, 0, 0, 0, 0, 0, 0, 0, 0, 0, 0, 0, 0, 0, 0, 0, 0, 0, 0, 0, 0, 0, 0, 0, 5582, 3156, 0, 0, 0, 0, 0, 0, 0, 0, 0, 0, 3118, 0, 5598, 3178, 0, 0, 0, 0, 0, 6814, 0, 0, 0, 0, 3120, 0, 0, 0, 0, 0, 0, 0, 0, 0, 0, 0, 0, 0, 3120, 0, 0, 0, 0, 0, 0, 0, 0, 0, 0, 0, 0, 0, 3120, 0, 0, 0, 0, 0, 0, 6677, 6678, 6715, 0, 0, 0, 0, 3140, 0, 0, 0, 0, 0, 0, 6693, 6694, 6731, 0, 0, 0, 0, 0, 0, 0, 0, 4866, 0, 4866, 0, 0, 0, 0, 0, 0, 0, 0, 0, 0, 0, 0, 0, 0, 0, 0, 0, 0, 0, 0, 0, 0, 0, 0, 0, 3127, 3128, 0, 0, 0, 0, 0, 0, 0, 0, 0, 0, 4988, 4989, 3149, 3150, 0, 0, 0, 0, 0, 0, 0, 0, 0, 0, 5004, 5005, 5037, 5037, 5037, 5037, 5037, 5037, 0, 0, 0, 0, 0, 0, 0, 0, 0, 0, 0, 0, 0, 0, 0],
         "height":14,
         "id":16,
         "name":"moebel_unten",
         "opacity":1,
         "type":"tilelayer",
         "visible":true,
         "width":14,
         "x":0,
         "y":0
        }, 
        {
         "data":[0, 0, 0, 0, 0, 0, 0, 0, 0, 0, 0, 0, 0, 0, 0, 0, 0, 0, 0, 0, 0, 0, 0, 0, 0, 0, 0, 0, 0, 0, 0, 0, 0, 0, 0, 3011, 3013, 3013, 3013, 3056, 0, 0, 0, 0, 0, 0, 0, 0, 0, 3033, 3035, 3035, 3035, 3102, 6915, 0, 0, 0, 0, 0, 0, 0, 0, 0, 4817, 0, 4817, 0, 0, 0, 0, 0, 0, 0, 0, 0, 0, 0, 4833, 0, 4833, 0, 0, 0, 0, 0, 0, 0, 0, 0, 0, 3011, 3013, 3013, 3012, 0, 0, 0, 0, 0, 0, 0, 0, 0, 4902, 3011, 3013, 3013, 3012, 0, 0, 0, 0, 0, 0, 4909, 0, 0, 4918, 3033, 3035, 3035, 3034, 0, 0, 0, 0, 0, 0, 4925, 0, 0, 0, 0, 0, 0, 0, 0, 0, 0, 0, 0, 0, 0, 0, 0, 0, 0, 0, 0, 0, 0, 0, 0, 0, 0, 0, 3354, 0, 0, 0, 0, 0, 0, 0, 0, 0, 0, 0, 0, 0, 3376, 0, 0, 2911, 2938, 2939, 5049, 5050, 5051, 5052, 0, 0, 0, 0, 0, 0, 5020, 5053, 2960, 2961, 5053, 5053, 5053, 5053, 0],
         "height":14,
         "id":4,
         "name":"moebel",
         "opacity":1,
         "type":"tilelayer",
         "visible":true,
         "width":14,
         "x":0,
         "y":0
        }, 
        {
         "data":[0, 0, 0, 0, 0, 0, 0, 0, 0, 0, 0, 0, 0, 0, 0, 0, 0, 0, 0, 0, 0, 3091, 3092, 3025, 3093, 3094, 0, 0, 0, 0, 0, 0, 0, 0, 0, 3113, 3114, 3047, 3115, 3116, 0, 0, 0, 0, 0, 0, 0, 0, 0, 3135, 3136, 0, 3137, 3138, 0, 0, 0, 0, 0, 0, 0, 0, 0, 0, 0, 0, 0, 0, 0, 0, 0, 0, 0, 0, 0, 0, 0, 0, 0, 0, 0, 0, 6716, 0, 0, 0, 0, 0, 0, 0, 0, 0, 0, 0, 0, 0, 6732, 0, 0, 0, 0, 0, 0, 0, 0, 0, 0, 0, 0, 0, 0, 0, 0, 0, 0, 0, 0, 0, 0, 4866, 0, 4866, 0, 0, 0, 0, 0, 0, 0, 0, 0, 0, 0, 4882, 0, 4882, 0, 0, 0, 0, 0, 0, 0, 0, 0, 0, 0, 0, 0, 0, 0, 0, 0, 0, 0, 0, 0, 0, 0, 0, 5563, 0, 0, 0, 0, 0, 0, 0, 0, 0, 0, 0, 0, 0, 0, 0, 0, 0, 0, 0, 0, 0, 0, 0, 0, 0, 0, 0, 0, 0, 0, 0, 0, 0, 0, 0],
         "height":14,
         "id":5,
         "name":"moebel-ebene-2",
         "opacity":1,
         "type":"tilelayer",
         "visible":true,
         "width":14,
         "x":0,
         "y":0
        }, 
        {
         "data":[0, 0, 0, 0, 0, 0, 0, 0, 0, 0, 0, 0, 0, 0, 0, 0, 0, 0, 0, 0, 0, 0, 0, 0, 0, 0, 0, 0, 0, 0, 0, 0, 0, 0, 0, 0, 0, 0, 0, 0, 0, 0, 0, 0, 0, 0, 0, 0, 0, 0, 0, 0, 0, 0, 0, 0, 0, 0, 0, 0, 0, 0, 0, 0, 0, 0, 0, 0, 0, 0, 0, 0, 0, 0, 0, 0, 0, 0, 0, 0, 0, 0, 0, 0, 0, 0, 0, 0, 0, 0, 0, 0, 0, 0, 0, 0, 0, 0, 0, 0, 0, 0, 0, 0, 0, 0, 0, 0, 0, 0, 0, 0, 0, 0, 0, 0, 0, 0, 0, 0, 0, 0, 0, 0, 0, 0, 0, 0, 0, 0, 0, 0, 0, 0, 0, 0, 0, 0, 0, 0, 0, 0, 0, 0, 0, 0, 0, 0, 0, 0, 0, 0, 0, 0, 0, 0, 0, 0, 0, 0, 0, 0, 0, 0, 0, 0, 0, 0, 0, 0, 0, 0, 0, 0, 0, 0, 0, 0, 0, 0, 0, 0, 0, 0, 1207, 1209, 1209, 1209, 1209, 1209, 1209, 1209, 1209, 1209, 1209, 1210],
         "height":14,
         "id":15,
         "name":"waende-vordergrund",
         "opacity":1,
         "type":"tilelayer",
         "visible":true,
         "width":14,
         "x":0,
         "y":0
        }, 
        {
         "data":[0, 0, 0, 0, 0, 6837, 6838, 6839, 0, 4878, 4879, 2959, 0, 0, 0, 0, 0, 2949, 6908, 6853, 6854, 6855, 0, 4894, 4895, 2981, 0, 0, 0, 0, 0, 2950, 6924, 0, 0, 5563, 0, 0, 0, 0, 0, 0, 0, 0, 0, 0, 0, 0, 0, 0, 0, 0, 0, 0, 0, 0, 0, 0, 0, 0, 0, 0, 0, 0, 0, 0, 0, 0, 0, 0, 0, 0, 0, 0, 0, 0, 0, 0, 0, 0, 0, 0, 0, 0, 0, 0, 0, 0, 0, 0, 0, 0, 0, 0, 0, 0, 0, 0, 0, 0, 0, 0, 0, 0, 0, 0, 0, 0, 0, 0, 0, 0, 0, 0, 0, 0, 0, 0, 0, 0, 0, 0, 0, 0, 0, 0, 0, 0, 0, 0, 0, 0, 0, 0, 0, 0, 0, 0, 0, 0, 0, 0, 0, 0, 0, 0, 0, 0, 0, 0, 0, 0, 0, 0, 0, 0, 0, 0, 0, 0, 0, 0, 0, 0, 0, 0, 0, 0, 0, 0, 0, 0, 0, 0, 0, 0, 0, 0, 0, 0, 0, 0, 0, 0, 0, 0, 0, 0, 0, 0, 0, 0, 0, 0, 0, 0],
         "height":14,
         "id":6,
         "name":"wand-deko",
         "opacity":1,
         "type":"tilelayer",
         "visible":true,
         "width":14,
         "x":0,
         "y":0
        }, 
        {
         "data":[0, 0, 0, 0, 0, 0, 0, 0, 0, 0, 0, 0, 0, 0, 0, 0, 0, 0, 0, 6872, 0, 0, 0, 0, 0, 0, 0, 0, 0, 0, 0, 0, 0, 6888, 0, 0, 0, 0, 0, 0, 0, 0, 0, 0, 0, 0, 0, 0, 0, 0, 0, 0, 0, 0, 0, 0, 0, 0, 0, 0, 0, 0, 0, 0, 0, 0, 0, 0, 0, 0, 0, 0, 0, 0, 0, 0, 0, 0, 0, 0, 0, 0, 0, 0, 0, 0, 0, 0, 0, 0, 0, 0, 0, 0, 0, 0, 0, 0, 0, 0, 0, 0, 0, 0, 0, 0, 0, 0, 0, 0, 0, 0, 0, 0, 0, 0, 0, 0, 0, 0, 0, 0, 0, 0, 0, 0, 0, 0, 0, 0, 0, 0, 0, 0, 0, 0, 0, 0, 0, 0, 0, 0, 0, 0, 0, 0, 0, 0, 0, 0, 0, 0, 0, 0, 0, 0, 0, 0, 0, 0, 0, 0, 0, 0, 0, 0, 0, 0, 0, 0, 0, 0, 0, 0, 0, 0, 0, 0, 0, 0, 0, 0, 0, 0, 0, 0, 0, 0, 0, 0, 0, 0, 0, 0, 0, 0],
         "height":14,
         "id":17,
         "name":"wand-deko-2",
         "opacity":1,
         "type":"tilelayer",
         "visible":true,
         "width":14,
         "x":0,
         "y":0
        }, 
        {
         "data":[0, 0, 0, 0, 0, 0, 0, 0, 0, 0, 0, 0, 0, 0, 0, 0, 0, 0, 0, 0, 0, 0, 0, 0, 0, 0, 0, 0, 0, 0, 0, 0, 0, 0, 0, 0, 0, 0, 0, 0, 0, 0, 0, 0, 0, 0, 0, 0, 0, 0, 0, 0, 0, 0, 0, 0, 0, 0, 0, 0, 0, 0, 0, 0, 0, 0, 0, 0, 0, 0, 0, 0, 0, 0, 0, 0, 0, 0, 0, 0, 0, 0, 0, 0, 0, 0, 0, 0, 0, 0, 0, 0, 0, 0, 0, 0, 0, 0, 0, 0, 0, 0, 0, 0, 0, 0, 0, 0, 0, 0, 0, 0, 7268, 7269, 0, 0, 0, 0, 0, 0, 0, 0, 0, 0, 0, 0, 7317, 7318, 0, 0, 0, 0, 0, 0, 0, 0, 0, 0, 0, 0, 0, 0, 0, 0, 0, 0, 0, 0, 0, 0, 0, 0, 0, 0, 0, 0, 0, 0, 0, 0, 0, 0, 0, 0, 0, 0, 0, 0, 0, 0, 0, 0, 0, 0, 0, 0, 0, 0, 0, 0, 0, 0, 0, 0, 0, 0, 0, 0, 0, 0, 0, 0, 0, 0, 0, 0],
         "height":14,
         "id":21,
         "name":"door-sign-clt-2021",
         "opacity":1,
         "type":"tilelayer",
         "visible":true,
         "width":14,
         "x":0,
         "y":0
        }, 
        {
         "data":[0, 0, 0, 0, 0, 0, 0, 0, 0, 0, 0, 0, 0, 0, 0, 0, 0, 0, 0, 0, 0, 0, 0, 0, 0, 0, 0, 0, 0, 0, 0, 0, 0, 0, 0, 0, 0, 0, 0, 0, 0, 0, 0, 0, 0, 0, 0, 0, 0, 0, 0, 0, 0, 0, 0, 0, 0, 0, 0, 0, 0, 0, 0, 0, 0, 0, 0, 0, 0, 0, 0, 0, 0, 0, 0, 0, 0, 0, 0, 0, 0, 0, 0, 0, 0, 0, 0, 0, 0, 0, 0, 0, 0, 0, 0, 0, 0, 0, 0, 0, 0, 0, 0, 0, 0, 0, 0, 0, 0, 0, 0, 0, 0, 0, 3899, 0, 0, 0, 0, 0, 0, 0, 0, 0, 0, 0, 0, 0, 3915, 0, 0, 0, 0, 0, 0, 0, 0, 0, 0, 0, 0, 0, 0, 0, 0, 0, 0, 0, 0, 0, 0, 0, 0, 0, 0, 0, 0, 0, 0, 0, 0, 0, 0, 0, 0, 0, 0, 0, 0, 0, 0, 0, 0, 0, 0, 0, 0, 0, 0, 0, 0, 0, 0, 0, 0, 0, 0, 0, 0, 0, 0, 0, 0, 0, 0, 0],
         "height":14,
         "id":22,
         "name":"door-sign-exit-direction",
         "opacity":1,
         "type":"tilelayer",
         "visible":true,
         "width":14,
         "x":0,
         "y":0
        }, 
        {
         "draworder":"topdown",
         "id":7,
         "name":"floorLayer",
         "objects":[],
         "opacity":1,
         "type":"objectgroup",
         "visible":true,
         "x":0,
         "y":0
        }, 
        {
         "data":[0, 0, 0, 0, 0, 0, 0, 0, 0, 0, 0, 0, 0, 0, 0, 0, 0, 0, 0, 0, 0, 0, 0, 0, 0, 0, 0, 0, 0, 0, 0, 0, 0, 0, 0, 0, 0, 0, 0, 0, 0, 0, 0, 0, 0, 0, 0, 0, 0, 0, 0, 0, 0, 0, 0, 0, 0, 0, 0, 0, 0, 0, 0, 0, 0, 0, 0, 0, 0, 0, 0, 0, 0, 0, 0, 0, 0, 0, 0, 0, 0, 0, 6716, 0, 0, 0, 0, 0, 0, 0, 0, 0, 0, 0, 0, 0, 0, 0, 0, 0, 0, 0, 0, 0, 0, 0, 0, 0, 0, 0, 0, 0, 0, 0, 0, 0, 0, 0, 0, 0, 0, 0, 0, 0, 0, 0, 0, 0, 0, 0, 0, 0, 0, 0, 0, 0, 0, 0, 0, 0, 0, 0, 0, 0, 0, 0, 0, 0, 0, 0, 0, 0, 0, 0, 0, 0, 0, 3354, 0, 0, 0, 0, 0, 5033, 5034, 5035, 5036, 0, 0, 0, 0, 0, 0, 0, 0, 0, 0, 0, 0, 0, 0, 0, 0, 0, 0, 0, 0, 0, 0, 0, 0, 0, 0, 0, 0, 0],
         "height":14,
         "id":18,
         "name":"vordergrund",
         "opacity":1,
         "type":"tilelayer",
         "visible":true,
         "width":14,
         "x":0,
         "y":0
        }],
 "nextlayerid":26,
 "nextobjectid":1,
 "orientation":"orthogonal",
 "properties":[
        {
         "name":"mapCopyright",
         "type":"string",
         "value":"Freifunk Chemnitz"
        }, 
        {
         "name":"mapDescription",
         "type":"string",
         "value":"Freifunk Chemnitz B\u00fcro"
        }, 
        {
         "name":"mapLink",
         "type":"string",
         "value":"https:\/\/gitlab.com\/FreifunkChemnitz\/workadventure-maps"
        }, 
        {
         "name":"mapName",
         "type":"string",
         "value":"Freifunk Chemnitz"
        }],
 "renderorder":"right-down",
 "tiledversion":"1.7.2",
 "tileheight":32,
 "tilesets":[
        {
         "columns":8,
         "firstgid":1,
         "image":"tiles\/Modern_Interiors\/1_Interiors\/32x32\/Floors_only_32x32.png",
         "imageheight":960,
         "imagewidth":256,
         "margin":0,
         "name":"Floors_only_32x32",
         "properties":[
                {
                 "name":"tilesetCopyright",
                 "type":"string",
                 "value":"https:\/\/limezu.itch.io\/"
                }],
         "spacing":0,
         "tilecount":240,
         "tileheight":32,
         "tilewidth":32
        }, 
        {
         "columns":21,
         "firstgid":241,
         "image":"tiles\/Modern_Interiors\/1_Interiors\/32x32\/Colored_ceilings_32x32.png",
         "imageheight":512,
         "imagewidth":672,
         "margin":0,
         "name":"Colored_ceilings_32x32",
         "properties":[
                {
                 "name":"tilesetCopyright",
                 "type":"string",
                 "value":"https:\/\/limezu.itch.io\/"
                }],
         "spacing":0,
         "tilecount":336,
         "tileheight":32,
         "tilewidth":32
        }, 
        {
         "columns":40,
         "firstgid":577,
         "image":"tiles\/Modern_Interiors\/1_Interiors\/32x32\/Tilesets_32x32.png",
         "imageheight":1856,
         "imagewidth":1280,
         "margin":0,
         "name":"Tilesets_32x32",
         "properties":[
                {
                 "name":"tilesetCopyright",
                 "type":"string",
                 "value":"https:\/\/limezu.itch.io\/"
                }],
         "spacing":0,
         "tilecount":2320,
         "tileheight":32,
         "tiles":[
                {
                 "id":1,
                 "properties":[
                        {
                         "name":"collides",
                         "type":"bool",
                         "value":true
                        }]
                }],
         "tilewidth":32
        }, 
        {
         "columns":22,
         "firstgid":2897,
         "image":"tiles\/Modern_Office\/Upscaled_versions\/Office_interiors_32x32.png",
         "imageheight":768,
         "imagewidth":704,
         "margin":0,
         "name":"Office_interiors_32x32",
         "properties":[
                {
                 "name":"tilesetCopyright",
                 "type":"string",
                 "value":"https:\/\/limezu.itch.io\/"
                }],
         "spacing":0,
         "tilecount":528,
         "tileheight":32,
         "tilewidth":32
        }, 
        {
         "columns":16,
         "firstgid":3425,
         "image":"tiles\/Modern_Interiors\/1_Interiors\/32x32\/Theme_Sorter_32x32\/2_LivingRoom_32x32.png",
         "imageheight":864,
         "imagewidth":512,
         "margin":0,
         "name":"2_LivingRoom_32x32",
         "properties":[
                {
                 "name":"tilesetCopyright",
                 "type":"string",
                 "value":"https:\/\/limezu.itch.io\/"
                }],
         "spacing":0,
         "tilecount":432,
         "tileheight":32,
         "tilewidth":32
        }, 
        {
         "columns":16,
         "firstgid":3857,
         "image":"tiles\/Modern_Interiors\/1_Interiors\/32x32\/Theme_Sorter_32x32\/1_Generic_32x32.png",
         "imageheight":1920,
         "imagewidth":512,
         "margin":0,
         "name":"1_Generic_32x32",
         "properties":[
                {
                 "name":"tilesetCopyright",
                 "type":"string",
                 "value":"https:\/\/limezu.itch.io\/"
                }],
         "spacing":0,
         "tilecount":960,
         "tileheight":32,
         "tilewidth":32
        }, 
        {
         "columns":16,
         "firstgid":4817,
         "image":"tiles\/Modern_Interiors\/1_Interiors\/32x32\/Theme_Sorter_32x32\/5_Classroom_and_library_32x32.png",
         "imageheight":1088,
         "imagewidth":512,
         "margin":0,
         "name":"5_Classroom_and_library_32x32",
         "properties":[
                {
                 "name":"tilesetCopyright",
                 "type":"string",
                 "value":"https:\/\/limezu.itch.io\/"
                }],
         "spacing":0,
         "tilecount":544,
         "tileheight":32,
         "tilewidth":32
        }, 
        {
         "columns":16,
         "firstgid":5361,
         "image":"tiles\/Modern_Interiors\/1_Interiors\/32x32\/Theme_Sorter_32x32\/12_Kitchen_32x32.png",
         "imageheight":1568,
         "imagewidth":512,
         "margin":0,
         "name":"12_Kitchen_32x32",
         "properties":[
                {
                 "name":"tilesetCopyright",
                 "type":"string",
                 "value":"https:\/\/limezu.itch.io\/"
                }],
         "spacing":0,
         "tilecount":784,
         "tileheight":32,
         "tilewidth":32
        }, 
        {
         "columns":16,
         "firstgid":6145,
         "image":"tiles\/Modern_Interiors\/1_Interiors\/32x32\/Theme_Sorter_32x32\/14_Basement_32x32.png",
         "imageheight":1568,
         "imagewidth":512,
         "margin":0,
         "name":"14_Basement_32x32",
         "properties":[
                {
                 "name":"tilesetCopyright",
                 "type":"string",
                 "value":"https:\/\/limezu.itch.io\/"
                }],
         "spacing":0,
         "tilecount":784,
         "tileheight":32,
         "tilewidth":32
        }, 
        {
         "columns":16,
         "firstgid":6929,
         "image":"tiles\/Modern_Interiors\/1_Interiors\/32x32\/Theme_Sorter_32x32\/6_Music_and_sport_32x32.png",
         "imageheight":640,
         "imagewidth":512,
         "margin":0,
         "name":"6_Music_and_sport_32x32",
         "properties":[
                {
                 "name":"tilesetCopyright",
                 "type":"string",
                 "value":"https:\/\/limezu.itch.io\/"
                }],
         "spacing":0,
         "tilecount":320,
         "tileheight":32,
         "tilewidth":32
        }, 
        {
         "columns":49,
         "firstgid":7249,
         "image":"tiles\/events\/clt2022_tileset.png",
         "imageheight":768,
         "imagewidth":1568,
         "margin":0,
         "name":"clt2022_tileset",
         "spacing":0,
         "tilecount":1176,
         "tileheight":32,
         "tilewidth":32
        }],
 "tilewidth":32,
 "type":"map",
 "version":"1.6",
 "width":14
}